|  ____|                  | | (_)             | |  | |               | | |
 | |__  __  _____ ___ _ __ | |_ _  ___  _ __   | |__| | __ _ _ __   __| | | ___ _ __
 |  __| \ \/ / __/ _ \ '_ \| __| |/ _ \| '_ \  |  __  |/ _` | '_ \ / _` | |/ _ \ '__|
 | |____ >  < (_|  __/ |_) | |_| | (_) | | | | | |  | | (_| | | | | (_| | |  __/ |
 |______/_/\_\___\___| .__/ \__|_|\___/|_| |_| |_|  |_|\__,_|_| |_|\__,_|_|\___|_|
                     | |
                     |_|
${application.title} ${application.version}
Powered by Spring Boot ${spring-boot.version}